<?xml version="1.0" encoding="UTF-8"?>
<svg xmlns="http://www.w3.org/2000/svg" xmlns:xlink="http://www.w3.org/1999/xlink" width="50px" height="50px" viewBox="0 0 50 50" version="1.1">
<g id="surface1">
<rect x="0" y="0" width="50" height="50" style="fill:rgb(100%,100%,100%);fill-opacity:1;stroke:none;"/>
<path style=" stroke:none;fill-rule:evenodd;fill:rgb(0%,0%,0%);fill-opacity:1;" d="M 0.734375 0.894531 L 49.265625 0.894531 L 49.265625 49.105469 L 0.734375 49.105469 Z M 0.734375 0.894531 "/>
<path style=" stroke:none;fill-rule:evenodd;fill:rgb(100%,100%,100%);fill-opacity:1;" d="M 48.234375 23.632812 L 48.214844 47.949219 L 2.730469 47.914062 C 14.871094 34.765625 30.410156 26.515625 48.234375 23.632812 Z M 48.234375 23.632812 "/>
<path style=" stroke:none;fill-rule:evenodd;fill:rgb(100%,100%,100%);fill-opacity:1;" d="M 1.921875 2.089844 L 48.1875 2.089844 L 48.242188 21.53125 C 46.40625 23.785156 40.261719 22.519531 39.890625 19.632812 C 40.984375 17.957031 41.96875 17.324219 42.933594 16.226562 C 43.804688 15.21875 47.167969 10.601562 46.738281 8.886719 C 45.792969 5.089844 38.460938 14.007812 37.996094 19.6875 C 36.992188 20.675781 35.210938 22.667969 33.726562 22.667969 C 30.328125 22.035156 39.015625 17.15625 40.054688 11.105469 C 40.890625 6.28125 35.304688 11.625 31.90625 18.070312 C 31.015625 19.761719 30.214844 23.488281 27.96875 24.492188 C 27.355469 22.574219 29.417969 19.929688 29.9375 18.070312 L 28.359375 17.882812 L 27.820312 18.589844 C 24.292969 16.894531 21.265625 22.425781 20.617188 25.945312 C 20.359375 28.457031 21.582031 28.234375 22.734375 27.882812 C 22.734375 27.882812 25.519531 25.628906 25.054688 25.871094 C 25.3125 26.113281 25.964844 26.914062 26.316406 26.914062 C 28.082031 26.914062 29.546875 24.921875 30.792969 23.671875 C 32.703125 26.691406 36.25 22.667969 38.238281 21.417969 L 40.1875 23.449219 C 28.082031 27.097656 12.039062 33.355469 1.921875 42.667969 Z M 1.921875 2.089844 "/>
<path style=" stroke:none;fill-rule:evenodd;fill:rgb(0%,0%,0%);fill-opacity:1;" d="M 7.726562 22.078125 C 3.917969 20.363281 8.113281 12.765625 18.492188 12.636719 C 14.78125 17.105469 11.253906 21.3125 8.113281 26.398438 C 7.019531 28.167969 4.066406 32.320312 3.25 34.851562 L 7.335938 33.902344 C 8.558594 31.871094 7.78125 32.46875 9.0625 29.933594 C 10.304688 31.164062 11.734375 31.574219 13.480469 31.574219 C 15.632812 31.035156 17.769531 29.507812 18.382812 28.109375 C 19.941406 24.570312 19.941406 23.640625 17.863281 20.902344 C 19.960938 19.953125 22.6875 19.359375 23.578125 16.660156 C 24.304688 14.441406 23.617188 12.953125 21.40625 11.835938 C 22.113281 10.421875 23.078125 11.128906 23.953125 11.183594 C 24.84375 8.445312 22.894531 8.800781 21.519531 9.601562 C 20.128906 10.996094 20.277344 10.941406 19.421875 11.554688 C 18.753906 11.296875 17.433594 11.128906 14.316406 11.539062 C -1.835938 16.453125 3.917969 23.699219 7.726562 22.078125 Z M 7.726562 22.078125 "/>
<path style=" stroke:none;fill-rule:evenodd;fill:rgb(100%,100%,100%);fill-opacity:1;" d="M 21.664062 16.675781 C 19.957031 18.761719 17.636719 20.253906 14.40625 19.992188 C 15.203125 18.5 18.695312 13.289062 19.640625 13.082031 C 22.167969 12.523438 22.480469 14.164062 21.664062 16.675781 Z M 17.007812 26.289062 C 15.539062 29.4375 12.570312 30.777344 9.542969 29.046875 C 10.675781 26.550781 12.457031 22.378906 13.703125 21.152344 C 17.710938 20.648438 18.472656 23.144531 17.007812 26.289062 Z M 22.96875 25.058594 C 21.582031 23.78125 24.667969 19.011719 26.984375 19.757812 C 27.699219 20.140625 24.351562 26.335938 22.96875 25.058594 Z M 33.15625 18.765625 C 33.308594 16.257812 38.09375 10.292969 38.480469 11.828125 C 38.890625 13.425781 33.027344 20.84375 33.15625 18.765625 Z M 40.222656 17.238281 C 39.296875 17.09375 42.515625 11.078125 44.851562 10.277344 C 46.027344 9.878906 41.527344 17.238281 40.222656 17.238281 Z M 40.222656 17.238281 "/>
</g>
</svg>
